{
  "success": true,
  "error": null,
  "data": [
      {
          "id": 21822,
          "start": "2020/10/09",
          "end": "2020/10/11",
          "isnew": false,
          "name": "2019【馬來西亞國際綠色科技與環保產品博覽會】熱烈徵展！",
          "addr": "來西亞吉隆坡",
          "url": "https://events.taiwantrade.com/MLG2019"
      },
      {
          "id": 21560,
          "start": "2020/04/16",
          "end": "2020/04/19",
          "isnew": false,
          "name": "【2020年馬來西亞銀髮健康照護展】鎖定東協高齡化市場，敬邀業者參展，拓銷健康照護商機！",
          "addr": "馬來西亞吉隆坡",
          "url": "https://events.taiwantrade.com/MEDT2019-3db"
      },
      {
          "id": 21265,
          "start": "2020/03/01",
          "end": "2020/03/04",
          "isnew": false,
          "name": "【2020年科隆五金展】開放報名！",
          "addr": "德國科隆",
          "url": "https://events.taiwantrade.com/KLN2019"
      },
      {
          "id": 21688,
          "start": "2020/02/20",
          "end": "2020/02/22",
          "isnew": false,
          "name": "【2020越南連鎖加盟暨餐旅設備展】熱烈徵展！",
          "addr": "越南河內",
          "url": "https://events.taiwantrade.com/VIEF2020"
      },
      {
          "id": 20219,
          "start": "2019/11/22",
          "end": "2019/11/22",
          "isnew": false,
          "name": "11/22 供應商開發與管理完全指南",
          "addr": "高雄市民權一路28號4~5樓",
          "url": "https://events.taiwantrade.com/KH20191122"
      },
      {
          "id": 21833,
          "start": "2019/11/21",
          "end": "2019/11/21",
          "isnew": false,
          "name": "11/21【FB電商行銷X GA網站分析 實戰守則】",
          "addr": "高雄市民權一路28號4樓",
          "url": "https://events.taiwantrade.com/KH20180425-6da"
      },
      {
          "id": 20233,
          "start": "2019/11/19",
          "end": "2019/11/19",
          "isnew": false,
          "name": "11/19 企業轉型之創新商業模式與品牌發展",
          "addr": "高雄市民權一路28號4~5樓",
          "url": "https://events.taiwantrade.com/KH20191119"
      },
      {
          "id": 20304,
          "start": "2019/11/19",
          "end": "2019/11/19",
          "isnew": false,
          "name": "0/0 企業轉型之創新商業模式與品牌發展(test)",
          "addr": "高雄市民權一路28號4~5樓",
          "url": "http://events.taiwantrade.com.tw/KH20191119-e34"
      },
      {
          "id": 20220,
          "start": "2019/11/12",
          "end": "2019/11/12",
          "isnew": false,
          "name": "11/12 6小時做好存貨管理及成本分析管控!",
          "addr": "高雄市民權一路28號4~5樓",
          "url": "https://events.taiwantrade.com/KH20191112"
      },
      {
          "id": 20068,
          "start": "2019/11/05",
          "end": "2019/11/05",
          "isnew": false,
          "name": "11/5 抓準船務處理眉角與報關英文",
          "addr": "高雄市民權一路28號4~5樓",
          "url": "https://events.taiwantrade.com/KH20191105"
      },
      {
          "id": 20227,
          "start": "2019/10/30",
          "end": "2019/10/30",
          "isnew": false,
          "name": "10/30 國際貿易商務英語溝通力實務班",
          "addr": "高雄市民權一路28號4~5樓",
          "url": "https://events.taiwantrade.com/KH20191030"
      },
      {
          "id": 20067,
          "start": "2019/10/25",
          "end": "2019/10/25",
          "isnew": false,
          "name": "【確定開班】10/25 這樣參展最有效率-如何為國際商展加值",
          "addr": "高雄市民權一路28號4~5樓",
          "url": "https://events.taiwantrade.com/KH20191025"
      },
      {
          "id": 19992,
          "start": "2019/10/22",
          "end": "2019/10/22",
          "isnew": false,
          "name": "10/22 各種國際貿易付款方式及風險之探討",
          "addr": "高雄市民權一路28號4樓",
          "url": "https://events.taiwantrade.com/KH20191022"
      },
      {
          "id": 19991,
          "start": "2019/10/19",
          "end": "2019/10/20",
          "isnew": false,
          "name": "10/19-20 國貿業務菁英教戰守則",
          "addr": "高雄市民權一路28號4樓",
          "url": "https://events.taiwantrade.com/KH20191019"
      },
      {
          "id": 21759,
          "start": "2019/10/19",
          "end": "2019/11/02",
          "isnew": false,
          "name": "【確定開班】10/19-11/2 國際拓銷人才培訓課程-商務英語(2019年-下半年課程)",
          "addr": "高雄市民權一路28號4-5樓",
          "url": "https://events.taiwantrade.com/KH20191019-1102"
      },
      {
          "id": 21598,
          "start": "2019/10/17",
          "end": "2019/10/19",
          "isnew": false,
          "name": "【徵展倒數】莫迪連任，城市建設商機看俏！「亞洲智慧城市展 SMART ASIA India」10月孟買舉辦",
          "addr": null,
          "url": "https://events.taiwantrade.com/SAI22019"
      },
      {
          "id": 21906,
          "start": "2019/10/17",
          "end": "2019/10/17",
          "isnew": false,
          "name": "「中國大陸暨國際食品市場拓銷攻略」說明會",
          "addr": null,
          "url": "https://events.taiwantrade.com/KH1081017"
      },
      {
          "id": 20661,
          "start": "2019/10/17",
          "end": "2019/10/19",
          "isnew": false,
          "name": "2019年亞洲智慧城市展覽暨論壇(SMART ASIA India)",
          "addr": "孟買展覽中心",
          "url": "https://events.taiwantrade.com/SAI2019"
      },
      {
          "id": 21007,
          "start": "2019/10/16",
          "end": "2019/10/18",
          "isnew": false,
          "name": "2019「台灣國際智慧能源週 (ENERGY TAIWAN)」四大能源主題展徵展中",
          "addr": "台北南港展覽館1館 (台北市南港區經貿二路1號)",
          "url": "https://events.taiwantrade.com/ENR2019"
      },
      {
          "id": 20066,
          "start": "2019/10/16",
          "end": "2019/10/17",
          "isnew": false,
          "name": "10/16-10/17 超魅力講師養成實戰班",
          "addr": "高雄市民權一路28號4~5樓",
          "url": "https://events.taiwantrade.com/KH20191016-1017"
      },
      {
          "id": 20065,
          "start": "2019/10/08",
          "end": "2019/10/08",
          "isnew": false,
          "name": "10/7 付款方式與國貿條規之抉擇",
          "addr": "高雄市民權一路28號4~5樓",
          "url": "https://events.taiwantrade.com/KH20191007"
      },
      {
          "id": 20063,
          "start": "2019/10/02",
          "end": "2019/10/02",
          "isnew": false,
          "name": "10/2 會算才會賺! 成本與價格分析",
          "addr": "高雄市民權一路28號4~5樓",
          "url": "https://events.taiwantrade.com/KH20191002"
      },
      {
          "id": 19952,
          "start": "2019/10/01",
          "end": "2019/10/01",
          "isnew": false,
          "name": "10/1 商業簡報實戰班-從架構、設計到表達! ",
          "addr": "高雄市民權一路28號4~5樓",
          "url": "https://events.taiwantrade.com/KH20190423-30"
      },
      {
          "id": 20062,
          "start": "2019/09/26",
          "end": "2019/09/26",
          "isnew": false,
          "name": "【確定開班】9/26 業務談判策略與技巧實務大公開",
          "addr": "高雄市民權一路28號4~5樓",
          "url": "https://events.taiwantrade.com/KH20190926"
      },
      {
          "id": 20201,
          "start": "2019/09/24",
          "end": "2019/09/24",
          "isnew": false,
          "name": "【確定開班】9/24 採購重大問題分析與實例探討",
          "addr": "高雄市民權一路28號4~5樓",
          "url": "https://events.taiwantrade.com/KH20190924"
      },
      {
          "id": 21928,
          "start": "2019/09/24",
          "end": "2019/09/24",
          "isnew": false,
          "name": "9/25《免費講座》-清真市場商機大解密與驗證說明會(花蓮場)-穆斯林輕鬆遊",
          "addr": "花蓮縣勞工育樂中心3F會議室",
          "url": "https://events.taiwantrade.com/2019HLH"
      },
      {
          "id": 21869,
          "start": "2019/09/20",
          "end": "2019/09/20",
          "isnew": false,
          "name": "09/20「 打造澎湖品牌、進軍國際市場」說明會",
          "addr": "澎湖科技大學海科大樓北棟一樓會議室(馬公市六合路300號)",
          "url": "https://events.taiwantrade.com/KH20190920"
      },
      {
          "id": 20202,
          "start": "2019/09/19",
          "end": "2019/09/19",
          "isnew": false,
          "name": "【確定開班】9/19 為策略畫地圖~建構公司管理體系實務演練班",
          "addr": "高雄市民權一路28號4~5樓",
          "url": "https://events.taiwantrade.com/KH20190919"
      },
      {
          "id": 21913,
          "start": "2019/09/17",
          "end": "2019/09/17",
          "isnew": false,
          "name": "【免費講座】9/17孟加拉印度市場商機說明會",
          "addr": "高雄辦事處",
          "url": "https://events.taiwantrade.com/KH1080917"
      },
      {
          "id": 21818,
          "start": "2019/09/12",
          "end": "2019/09/12",
          "isnew": false,
          "name": "9/12【2019中國大陸市場通路觀測發表列車】免費報名！",
          "addr": "高雄市民權一路28號401會議室",
          "url": "https://events.taiwantrade.com/CN2019"
      },
      {
          "id": 19972,
          "start": "2019/09/12",
          "end": "2019/09/12",
          "isnew": false,
          "name": "9/12 傳統企業如何進入電商領域",
          "addr": "高雄市民權一路28號4樓",
          "url": "https://events.taiwantrade.com/KH1080912"
      },
      {
          "id": 19990,
          "start": "2019/09/11",
          "end": "2019/09/11",
          "isnew": false,
          "name": "09/11 徹底擺脫價格競爭的業務開發密笈",
          "addr": "高雄市民權一路28號4樓",
          "url": "https://events.taiwantrade.com/KH20190911"
      },
      {
          "id": 20061,
          "start": "2019/09/10",
          "end": "2019/09/10",
          "isnew": false,
          "name": "【確定開班】9/10 一次弄懂海關的查驗與通關 (老手帶路)",
          "addr": "高雄市民權一路28號4~5樓",
          "url": "https://events.taiwantrade.com/KH20190910"
      },
      {
          "id": 20212,
          "start": "2019/09/10",
          "end": "2019/10/22",
          "isnew": false,
          "name": "【確定開班】9/10~10/22 國貿實務特訓— 進出口通關與國際運輸規劃實務",
          "addr": "高雄市民權一路28號4~5樓",
          "url": "https://events.taiwantrade.com/KH20190910-1022"
      },
      {
          "id": 21863,
          "start": "2019/08/16",
          "end": "2019/09/21",
          "isnew": false,
          "name": "9/19 - 9/21【台北世貿-2019年台灣國際美容展】北上專車",
          "addr": "台北世貿一館",
          "url": "https://events.taiwantrade.com/KH1070919-0921"
      },
      {
          "id": 21559,
          "start": "2019/08/10",
          "end": "2019/09/21",
          "isnew": false,
          "name": "8/10~9/21(假日班)輕鬆學商務基礎印尼語(二)",
          "addr": "高雄市民權一路28號4~5樓",
          "url": "https://events.taiwantrade.com/KH20190810-0921"
      },
      {
          "id": 20057,
          "start": "2019/08/06",
          "end": "2019/09/05",
          "isnew": false,
          "name": "【確定開班】8/6-9/5 國貿特訓系列 (一) 國際貿易實務入門速成",
          "addr": "高雄市民權一路28號4~5樓",
          "url": "https://events.taiwantrade.com/KH20190806"
      },
      {
          "id": 19303,
          "start": "2019/01/02",
          "end": "2019/12/31",
          "isnew": false,
          "name": "我有【企業內訓】需求 (報名請點我)",
          "addr": "高雄市民權一路28號4~5樓",
          "url": "https://events.taiwantrade.com/KH20190101"
      },
      {
          "id": 20161,
          "start": "2019/01/01",
          "end": "2019/12/31",
          "isnew": false,
          "name": "2019 全年課程一覽表",
          "addr": "高雄市民權一路28號4~5樓",
          "url": "https://events.taiwantrade.com/KH20190000"
      }
  ]
}